…
```
## Warning: `tbl_df()` is deprecated as of dplyr 1.0.0.
## Please use `tibble::as_tibble()` instead.
## This warning is displayed once every 8 hours.
## Call `lifecycle::last_warnings()` to see where this warning was generated.
```

```r
data_impute<-data_tb %>% group_by(interval) %>% mutate(steps=replacebymean(steps))
data_impute
```

```
## # A tibble: 17,568 x 3
## # Groups:   interval [288]
##     steps date       interval
##     <dbl> <date>        <int>
##  1 1.72   2012-10-01        0
##  2 0.340  2012-10-01        5
##  3 0.132  2012-10-01       10
##  4 0.151  2012-10-01       15
##  5 0.0755 2012-10-01       20
##  6 2.09   2012-10-01       25
##  7 0.528  2012-10-01       30
##  8 0.868  2012-10-01       35
##  9 0      2012-10-01       40
## 10 1.47   2012-10-01       45
## # ... with 17,558 more rows
```
…
